{material
	{layer bump
		{diffuse "/texture/land/grass/gramma_8"}
		{bump "/texture/land/grass/gramma_8_nm"}
	}
	{layer bump
		{diffuse "/texture/land/grass/gramma_112"}
		{bump "/texture/land/grass/gramma_112_nm"}
	}
}
