{material
	{layer bump
		{diffuse "/texture/land/grass/gramma_12b"}
		{bump "/texture/land/grass/gramma_12b_nm"}
		{color 0xffffffff}
		{parallax_scale 0}
	}
	{layer bump
		{diffuse "/texture/land/dirt/ground_smooth"}
		{bump "/texture/land/dirt/ground_smooth_nm"}
		{color 0xffffffff}
		{parallax_scale 0}
	}
}
