{material
	{layer bump
		{diffuse "/texture/land/grass/gramma_111"}
		{bump "/texture/land/grass/gramma_111_nm"}
	}
	{layer bump
		{diffuse "/texture/land/fields/tillage_2"}
		{bump "/texture/land/fields/tillage_2_nm"}
	}
}
