{material
	{layer bump
		{diffuse "/texture/land/grass/gramma_reich"}
		{bump "/texture/land/grass/gramma_reich_nm"}
		{color 0xffffffff}
		{parallax_scale 0}
	}
	{layer bump
		{diffuse "/texture/land/fields/tillage_growed"}
		{bump "/texture/land/fields/tillage_growed_nm"}
		{color 0xffffffff}
		{parallax_scale 0}
	}
}
