{material
	{layer bump
		{diffuse "/texture/land/grass/gramma_reich"}
		{bump "/texture/land/grass/gramma_reich_nm"}
		{color 0xffffffff}
		{parallax_scale 0}
	}
	{layer bump
		{diffuse "/texture/land/hassock/pebble_grass"}
		{bump "/texture/land/hassock/pebble_grass_nm"}
		{color 0xffffffff}
		{parallax_scale 0}
	}
}
