{material
	{layer bump
		{diffuse "/texture/land/winter/snow_white"}
		{bump "/texture/land/winter/snow_white_nm"}
		{color 0xffffffff}
		{parallax_scale 0}
	}
	{layer bump
		{diffuse "/texture/land/winter/snow_6"}
		{bump "/texture/land/winter/snow_6_nm"}
		{color 0xffffffff}
		{parallax_scale 0}
	}
}
