{material
	{layer bump
		{diffuse "/texture/land/dirt/clay_new21"}
		{bump "/texture/land/dirt/clay_new21_nm"}
		{color 0xffffffff}
		{parallax_scale 0}
	}
	{layer bump
		{diffuse "/texture/land/town/122b"}
		{bump "/texture/land/town/122b_nm"}
		{color 0xffffffff}
		{parallax_scale 0}
	}
}
