{material
	{layer bump
		{diffuse "/texture/land/hassock/tuft_light01"}
		{bump "/texture/land/hassock/tuft_light01_nm"}
		{color 0xffffffff}
		{parallax_scale 0}
	}
	{layer bump
		{diffuse "/texture/land/grass/gramma_8d"}
		{bump "/texture/land/grass/gramma_8d_nm"}
		{color 0xffffffff}
		{parallax_scale 0}
	}
}
