{material
	{layer bump
		{diffuse "/texture/land/grass/steppe_2a"}
		{bump "/texture/land/grass/steppe_2a_nm"}
		{color 0xffffffff}
		{parallax_scale 0}
	}
	{layer bump
		{diffuse "/texture/land/grass/grass_5c"}
		{bump "/texture/land/grass/grass_5c_nm"}
		{color 0xffffffff}
		{parallax_scale 0}
	}
}
