{material
	{layer bump
		{diffuse "/texture/land/grass/steppe_2a"}
		{bump "/texture/land/grass/steppe_2a_nm"}
		{color 0xffffffff}
		{parallax_scale 0}
	}
	{layer bump
		{diffuse "/texture/land/fields/field_57"}
		{bump "/texture/land/fields/field_57_nm"}
		{color 0xffffffff}
		{parallax_scale 0}
	}
}
