{material
	{layer bump
		{diffuse "/texture/land/grass/gramma_9b"}
		{bump "/texture/land/grass/gramma_9b_nm"}
		{color 0xffffffff}
		{parallax_scale 0}
	}
	{layer bump
		{diffuse "/texture/land/dirt/clay_new1f2"}
		{bump "/texture/land/dirt/clay_new1f2_nm"}
		{color 0xffffffff}
		{parallax_scale 0}
	}
}
