{material
	{layer bump
		{diffuse "/texture/land/sand/sand_pebble2"}
		{bump "/texture/land/sand/sand_pebble2_nm"}
		{color 0xffffffff}
		{parallax_scale 0}
	}
	{layer bump
		{diffuse "/texture/land/hassock/tuft_1b"}
		{bump "/texture/land/hassock/tuft_1b_nm"}
		{color 0xffffffff}
		{parallax_scale 0}
	}
}
