{material
	{layer bump
		{diffuse "/texture/land/grid001"}
		{color 0xffffffff}
		{parallax_scale 0}
	}
	{layer bump
		{diffuse "/texture/land/grid001"}
		{color 0xffffffff}
		{parallax_scale 0}
	}
}
