{material
	{layer bump
		{diffuse "/texture/land/fields/tillage_1sun"}
		{bump "/texture/land/fields/tillage_1sun_nm"}
		{color 0xffffffff}
		{parallax_scale 0}
	}
	{layer bump
		{diffuse "/texture/land/grass/grass_pebb3"}
		{bump "/texture/land/grass/grass_pebb3_nm"}
		{color 0xffffffff}
		{parallax_scale 0}
	}
}
