{material
	{layer bump
		{diffuse "/texture/land/sand/sand_motl1"}
		{bump "/texture/land/sand/sand_motl1_nm"}
		{color 0xffffffff}
		{parallax_scale 0}
	}
	{layer bump
		{diffuse "/texture/land/grass/grass_pebb3"}
		{bump "/texture/land/grass/grass_pebb3_nm"}
		{color 0xffffffff}
		{parallax_scale 0}
	}
}
