{material
	{layer bump
		{diffuse "/texture/land/sand/sand_2"}
		{bump "/texture/land/sand/sand_2_nm"}
		{color 0xffffffff}
		{parallax_scale 0}
	}
	{layer bump
		{diffuse "/texture/land/hassock/tuft_light01"}
		{bump "/texture/land/hassock/tuft_light01_nm"}
		{color 0xffffffff}
		{parallax_scale 0}
	}
}
