{material
	{layer bump
		{diffuse "/texture/land/grass/gramma_4c"}
		{bump "/texture/land/grass/gramma_4c_nm"}
		{color 0xffffffff}
		{parallax_scale 0}
	}
	{layer bump
		{diffuse "/texture/land/fields/stubble_field_growed1a"}
		{bump "/texture/land/fields/stubble_field_growed1a_nm"}
		{color 0xffffffff}
		{parallax_scale 0}
	}
}
