{material
	{layer bump
		{diffuse "/texture/land/sand/floor_sand2b"}
		{bump "/texture/land/sand/floor_sand2b_nm"}
	}
	{layer bump
		{diffuse "/texture/land/sand/sand_motl1"}
		{bump "/texture/land/sand/sand_motl1_nm"}
	}
}
