{material
	{layer bump
		{diffuse "/texture/land/grass/flowers_grass"}
		{bump "/texture/land/grass/flowers_grass_nm"}
		{color 0xffffffff}
		{parallax_scale 0}
	}
	{layer bump
		{diffuse "/texture/land/grass/gramma_111a"}
		{bump "/texture/land/grass/gramma_111a_nm"}
		{color 0xffffffff}
		{parallax_scale 0}
	}
}
