{material
	{layer bump
		{diffuse "/texture/land/town/brick_street1"}
		{bump "/texture/land/town/brick_street1_nm"}
		{color 0xffffffff}
		{parallax_scale 0}
	}
	{layer bump
		{diffuse "/texture/land/town/cobble 14dark"}
		{bump "/texture/land/town/cobble 14dark_nm"}
		{color 0xffffffff}
		{parallax_scale 0}
	}
}
