{material
	{layer bump
		{diffuse "/texture/land/grass/gramma_111"}
		{bump "/texture/land/grass/gramma_111_nm"}
		{color 0xffffffff}
		{parallax_scale 0}
	}
	{layer bump
		{diffuse "/texture/land/grass/steppe_5"}
		{bump "/texture/land/grass/steppe_5_nm"}
		{color 0xffffffff}
		{parallax_scale 0}
	}
}
