{material
	{layer bump
		{diffuse "/texture/land/town/bricks2_light"}
		{bump "/texture/land/town/bricks2_light_nm"}
		{color 0xffffffff}
		{parallax_scale 0}
	}
	{layer bump
		{diffuse "/texture/land/grass/gramma_8"}
		{bump "/texture/land/grass/gramma_8_nm"}
		{color 0xffffffff}
		{parallax_scale 0}
	}
}
