{material
	{layer bump
		{diffuse "/texture/land/town/asfalt_road_q3_dark"}
		{bump "/texture/land/town/asfalt_road_q3_dark_nm"}
		{color 0xffffffff}
		{parallax_scale 0}
	}
	{layer bump
		{diffuse "/texture/land/town/asfalt_road copy"}
		{bump "/texture/land/town/asfalt_road copy_nm"}
		{color 0xffffffff}
		{parallax_scale 0}
	}
}
