{material
	{layer bump
		{diffuse "/texture/land/grass/gramma_reich"}
		{bump "/texture/land/grass/gramma_reich_nm"}
		{color 0xffffffff}
		{parallax_scale 0}
	}
	{layer bump
		{diffuse "/texture/land/leaves/needle_2a"}
		{bump "/texture/land/leaves/needle_2a_nm"}
		{color 0xffffffff}
		{parallax_scale 0}
	}
}
