{material
	{layer bump
		{diffuse "/texture/land/bottom/bottom_river1"}
		{bump "/texture/land/bottom/bottom_river1_nm"}
		{color 0xffffffff}
		{parallax_scale 0}
	}
	{layer bump
		{diffuse "/texture/land/dirt/soil_light02"}
		{bump "/texture/land/dirt/soil_light02_nm"}
		{color 0xffffffff}
		{parallax_scale 0}
	}
}
