{material
	{layer bump
		{diffuse "/texture/land/sand/sand_smooth2d"}
		{bump "/texture/land/sand/sand_smooth2d_nm"}
		{color 0xffffffff}
		{parallax_scale 0}
	}
	{layer bump
		{diffuse "/texture/land/sand/sand_pebble1"}
		{bump "/texture/land/sand/sand_pebble1_nm"}
		{color 0xffffffff}
		{parallax_scale 0}
	}
}
