{material
	{layer bump
		{diffuse "/texture/land/sand/sand_smooth2d"}
		{bump "/texture/land/sand/sand_smooth2d_nm"}
		{color 0xffffffff}
		{parallax_scale 0}
	}
	{layer bump
		{diffuse "/texture/land/_new/dirtstones_01"}
		{bump "/texture/land/_new/dirtstones_01_nm"}
		{height "/texture/land/_new/dirtstones_01_hm"}
		{color 0xffffffff}
		{parallax_scale 0}
	}
}
