{material
	{layer bump
		{diffuse "/texture/land/_new/dirtstones_03"}
		{bump "/texture/land/_new/dirtstones_03_nm"}
		{height "/texture/land/_new/dirtstones_03_hm"}
		{color 0xffffffff}
		{parallax_scale 0}
	}
	{layer bump
		{diffuse "/texture/land/winter/snow_6"}
		{bump "/texture/land/winter/snow_6_nm"}
		{color 0xffffffff}
		{parallax_scale 0}
	}
}
