{material
	{layer bump
		{diffuse "/texture/land/grass/gramma_12d"}
		{bump "/texture/land/grass/gramma_12d_nm"}
	}
	{layer bump
		{diffuse "/texture/land/fields/fieldgrass2"}
		{bump "/texture/land/fields/fieldgrass2_nm"}
	}
}
