{material
	{layer bump
		{diffuse "/texture/land/sand/floor_sand2"}
		{bump "/texture/land/sand/floor_sand2_nm"}
		{color 0xffffffff}
		{parallax_scale 0}
	}
	{layer bump
		{diffuse "/texture/land/town/plates_dirt2"}
		{bump "/texture/land/town/plates_dirt2_nm"}
		{color 0xffffffff}
		{parallax_scale 0}
	}
}
